M48
;Layer_Color=9474304
;FILE_FORMAT=2:4
INCH,LZ
;TYPE=PLATED
T1F00S00C0.0256
T2F00S00C0.0280
T3F00S00C0.0350
T4F00S00C0.0380
T5F00S00C0.0394
T6F00S00C0.0409
T7F00S00C0.0421
T8F00S00C0.0433
T9F00S00C0.0472
T10F00S00C0.0550
T11F00S00C0.0551
T12F00S00C0.1181
T13F00S00C0.1209
T14F00S00C0.1210
T15F00S00C0.1220
T16F00S00C0.1850
%
T01
X099456Y0264
X09944Y0285
X096684
X0967Y0264
X008697Y026
Y028756
T02
X01306Y00704
X01489Y00746
X01509Y00657
X01899Y00901
X02333Y01195
X03042Y01021
X0543Y01054
X05062Y0006
X10206Y00667
X11135Y01103
X10993Y01278
X12442Y00134
X12746Y00091
X12786Y00182
X12867Y00181
X13499Y00286
X1358Y00264
X1386Y00784
X13908Y00842
X13339Y01235
X13478Y01828
X13968Y01436
X10939Y01495
X1079Y01649
X103761Y017321
X10878Y02234
X10834Y024575
X10639Y02628
X09741Y02843
X09116Y02405
X09357Y02048
X09076Y01832
X08996Y01737
X069156Y0197
X0543Y026
X03304Y02687
X03062Y02695
X03256Y02239
X03216Y02144
X0314Y02009
X0206Y01968
X01409Y03254
X01279Y03407
X018715Y037655
X02756Y03636
X02808Y03358
X02591Y03457
X03074Y03781
X02307Y04476
X03963Y04227
X044496Y0406
X046127
X04941Y0379
X04668Y03258
X04491Y03394
X0447Y03454
X04381Y03218
X03991Y03231
X05225Y02942
X052246Y03735
X06876Y04002
X06821Y04388
X07129Y03587
X08739Y02938
X096875Y041705
X100995Y043065
X10695Y04266
X11151Y04151
X11173Y034479
X11142Y0306
X11702Y03488
X12601Y03535
X11518Y04303
X11455Y04525
X10306Y04526
X10008Y04525
X05636Y04556
T03
X140102Y0438
X141102
T04
X0827Y02885
X086492Y029248
X0885Y028854
X080692Y029244
X077116Y02885
X075108Y029244
X0715Y0289
X069492Y029294
T05
X00528Y0106
Y012569
X104039Y0205
Y0233
T06
X0235Y004153
X02458
X02566
X02674
X02782
X0289
X02998
X03052Y005273
X02944
X02836
X02728
X0262
X02512
X02404
X02296
X08496Y005659
X08604
X08712
X0882
X08928
X08874Y004539
X08766
X08658
X0855
X10098Y004758
X10206
X10314
X10422
X1053
X10638
X10746
X108Y005878
X10692
X10584
X10476
X10368
X1026
X10152
X10044
X017903Y0359
X016823
X015743
X014663
X013583
X012503
X011423
X011963Y03702
X013043
X014123
X015203
X016283
X017363
X018443
X018983Y0359
X079005Y0366
X080095
X081186
X080641Y03548
X07955
X081731
X082822
X083912
X085003
X086093
X087184
X088274
X089365
X090456
X091546
X092091Y0366
X091001
X08991
X08882
X087729
X086639
X085548
X084457
X083367
X082276
X0832Y0435
X08428
X08536
X08644
X08752
X0886
X08968
X08914Y04462
X08806
X08698
X0859
X08482
X08374
X08266
X09022
X13222Y0366
X1333
X13438
X13546
X13654
X13762
X1387
X13816Y03548
X13708
X136
X13492
X13384
X13276
X13168
X13924
T07
X10289Y03569
X103981
X105071
X106162
X107252
X108343
X109433
X110524
X111614
X111069Y03681
X109979
X108888
X107797
X106707
X105616
X104526
X103435
X102345
X102555Y0435
X103646
X104737
X105827
X106918
X108008
X109099
X110189
X11128
X11237
X111825Y04462
X110735
X109644
X108553
X107463
X106372
X105282
X104191
X103101
X10201
X10092
X099829
X100374Y0435
X101465
X11216Y03681
X11325
X114341
X115431
X116522
X117612
X118703
X119794
X120884
X121975
X121429Y03569
X120339
X119248
X118158
X117067
X115977
X114886
X113795
X112705
X113461Y0435
X114551
X115642
X116733
X117823
X118914
X118368Y04462
X117278
X116187
X115097
X114006
X112916
X119459
T08
X00528Y01756
Y019529
Y021497
Y023466
T09
X096953Y0205
Y0233
T10
X025906Y01136
X02756
Y013525
X025906
X033046Y013564
Y011399
X0347
X036354
Y013564
X0347
X041746Y0116
X0434
X050046Y011632
X0517
X057193Y013
X058846
X0605
X062154
X063807
X063907Y005865
X065561
Y0037
X063907
X062254
X0606
X058931
X057277
X055624
X05397
Y005865
X055624
X057277
X058931
X060584
X062254
X067214
X068884
X068899Y0037
X06723
X06799Y011755
X069643
X071297
X077806Y011366
X079459
Y013531
X077806
X085093
X086746
X0884
Y011366
X086746
X085093
X093824Y0117
X095477
X097146
X0988
X100454
X102107
X103761
X1347Y006964
X136354
Y004799
X1347
X103761Y013865
X102107
X100454
X0988
X097131
X095477
X093824
X071297Y013921
X069643
X06799
X0517Y013798
X050046
X0434Y013765
X041746
X018146Y0425
Y044665
X013431Y04463
X011778
X010124
Y042465
X011778
X013431
X0198Y0425
Y044665
X025791Y044232
Y042602
X027421
X029051
X03068
X03231
X03394
Y044232
X03231
X03068
X029051
X027421
X026863Y037049
X028516
X03017
X031824
X033493
Y034884
X031839
X03017
X028516
X026863
X035146
X0368
X038454
Y037049
X0368
X035146
X03557Y042602
X0372
Y044232
X03557
X041693Y043848
X043346
X045
X046654
X048307
X04783Y0369
X04946
Y03527
X04783
X0462
Y0369
X04457
Y03527
X055806Y03532
X05746
X059114
X060767
X062436
X06409
X065744
Y037485
X06409
X062421
X060767
X059114
X05746
X055806
X055554Y043848
X0539
X052246
X057207
X058861
X063246Y0428
X0649
X066554
X068207
X069861
X069051Y037485
X067397
Y03532
X069066
X070736
X07072Y037485
X12764Y0432
Y04483
X12927
X1309
X13253
X13416
Y0432
X13253
X1309
X12927
X069861Y044965
X068207
X066554
X0649
X063246
T11
X0394Y00358
Y005745
X0437Y005665
Y0035
X0479
Y005665
X116914Y004713
Y006878
X121975Y006833
Y004668
X126603Y0048
Y006965
X003981Y01756
T12
X061396Y044784
X071711
T13
X008643Y03646
X021763
X09966Y03625
X097144Y04406
X122144
X12466Y03625
X1289Y03604
X14202
T14
X02018Y004713
X0333
X09766Y005318
X11078
X076288Y03604
X07988Y04406
X093
X094808Y03604
T15
X082222Y0051
X09206
T16
X005Y005
X075
X145
X1125Y025
X0375
X145Y045
X075
X005
M30
