Wire List

<<< Component List >>>
TE AMPMODU MTE                  Access Do      HDR_1X2_PIN_VERT_AMPMODU
Molex Mini-Fit Jr               Air Knive      HDR_3X2_PIN_VERT_Mini-Fit Jr
TE AMPMODU MTE                  Air Knive      HDR_1X2_PIN_VERT_AMPMODU
100uF                           C5             Nichicon_UPW-10X12.5
Molex Mini-Fit Jr. Vert         Cleaner E      HDR_2X2_PIN_VERT_Mini-Fit Jr
Molex Mini-Fit Jr. Vert         Cleaner P      HDR_2X2_PIN_VERT_Mini-Fit Jr
Molex Mini-Fit Jr               Cleaner S      HDR_3X2_PIN_VERT_Mini-Fit Jr
Molex Mini-Fit Jr. Vert         Cleaner T      HDR_2X2_PIN_VERT_Mini-Fit Jr
TE AMPMODU MTE                  Cutoff Sw      HDR_1X2_PIN_VERT_AMPMODU
TE AMPMODU MTE                  Door Magn      HDR_1X2_PIN_VERT_AMPMODU
D-SUB15 Pin Vert                EBOB-J11       DB15_pin_vert_brdlok
D-SUB15 Pin Vert                EBOB-J12       DB15_pin_vert_brdlok
D-SUB9 Pin Vert                 ECS Alarm      DB9_pin_vert_brdlok
Molex Mini-Fit Jr               Electrome      HDR_3X2_PIN_VERT_Mini-Fit Jr
D-SUB15 Pin Vert                EPIC5-J4       DB15_pin_vert_brdlok
D-SUB15 Pin Vert                EPIC5-J5       DB15_pin_vert_brdlok
D-SUB25 Rcpt Vert               EPIC5-J7       DB25_RCPT_VERT_BRDLOK
D-SUB37 Rcpt Vert               EPIC5-J8       DB37_RCPT_VERT_BRDLOK
D-SUB15 Rcpt Vert               EPIC5-J9       DB15_RCPT_VERT_BRDLOK
D-SUB37 Rcpt Vert               EPIC5-J10      DB37_RCPT_VERT_BRDLOK
Mini-Fit Vertical               EPIC5-P7       HDR_5X1_PIN_VERT_Mini-Fit Jr
Mini-Fit Vertical               EPIC5-P8       HDR_5X1_PIN_VERT_Mini-Fit Jr
TE Mate & Lock VERT             EPIC5-P11      HDR_8X2_PIN_VERT_MATE-N-LOK
TE Mate & Lock Vert             EPIC5-P12      HDR_5X2_PIN_VERT_MATE-N-LOK
TE Mate & Lock Vert             EPIC5-P13      HDR_4X2_PIN_VERT_MATE-N-LOK
TE AMPMODU MTE                  EPIC5-P14      HDR_1X2_PIN_VERT_AMPMODU
Molex Mini-Fit Jr. Vert         EPIC5-P15      HDR_4X2_PIN_VERT_Mini-Fit Jr
Molex Mini-Fit Jr               EPIC5-P16      HDR_3X2_PIN_VERT_Mini-Fit Jr
Molex Mini-Fit Jr. Vert         EPIC5-P17      HDR_2X2_PIN_VERT_Mini-Fit Jr
TE Mate & Lock Vert             EPIC5-P18      HDR_5X2_PIN_VERT_MATE-N-LOK
39-28-9208                      EPIC5-P18      HDR_10X2_PIN_VERT_Mini-Fit Jr
TE AMPMODU MTE                  EPIC-P9        HDR_1X2_PIN_VERT_AMPMODU
TE AMPMODU MTE                  EPIC-P10       HDR_1X2_PIN_VERT_AMPMODU
39-28-9145                      Heater SS      HDR_7X2_PIN_VERT_Mini-Fit Jr
Molex Mini-Fit Jr               Image Per      HDR_3X2_PIN_VERT_Mini-Fit Jr
282836-2                        J1             TECO-282836-1_V
Mini-Fit Vertical               J2-IC/BC       HDR_5X1_PIN_VERT_Mini-Fit Jr
39-28-9168                      J13-EPIC       HDR_8X2_PIN_VERT_Mini-Fit Jr
Mini-Fit Vertical               Light Tow      HDR_5X1_PIN_VERT_Mini-Fit Jr
Molex Mini-Fit Jr. Vert         Payout To      HDR_2X2_PIN_VERT_Mini-Fit Jr
TE AMPMODU MTE                  Platen SS      HDR_1X2_PIN_VERT_AMPMODU
TE AMPMODU MTE                  Platen Th      HDR_1X2_PIN_VERT_AMPMODU
220                             R1             RES_1/4W_AXIAL
220                             R2             RES_1/4W_AXIAL
1.8K                            R3             RES_1/2W_AXIAL
1.8K                            R4             RES_1/2W_AXIAL
Molex Mini-Fit Jr. Vert         Reg Senso      HDR_2X2_PIN_VERT_Mini-Fit Jr
Molex Mini-Fit Jr. Vert         Takeup To      HDR_2X2_PIN_VERT_Mini-Fit Jr
TE AMPMODU MTE                  Transfuse      HDR_1X2_PIN_VERT_AMPMODU
TE AMPMODU MTE                  Transfuse      HDR_1X2_PIN_VERT_AMPMODU
BTS428L2                        U1             TO114P998X235-6_5N-V
BTS428L2                        U2             TO114P998X235-6_5N-V
BTS428L2                        U3             TO114P998X235-6_5N-V
BTS428L2                        U4             TO114P998X235-6_5N-V
TE AMPMODU MTE                  Waste Aug      HDR_1X2_PIN_VERT_AMPMODU
39-28-9208                      Web Condi      HDR_10X2_PIN_VERT_Mini-Fit Jr

<<< Wire List >>>

  NODE  REFERENCE  PIN #   PIN NAME       PIN TYPE    PART VALUE

[00001] P J4
        EBOB-J12   12      12             PASSIVE     D-SUB15 Pin Vert
        EPIC5-J4   12      12             PASSIVE     D-SUB15 Pin Vert

[00002] P
        EBOB-J11   12      12             PASSIVE     D-SUB15 Pin Vert
        EPIC5-J5   12      12             PASSIVE     D-SUB15 Pin Vert

[00017] NetEBOB-J12_15
        EBOB-J12   15      15             PASSIVE     D-SUB15 Pin Vert
        EPIC5-J4   15      15             PASSIVE     D-SUB15 Pin Vert

[00018] NetEBOB-J12_8
        EBOB-J12   8       8              PASSIVE     D-SUB15 Pin Vert
        EPIC5-J4   8       8              PASSIVE     D-SUB15 Pin Vert

[00019] NetEBOB-J12_6
        EBOB-J12   6       6              PASSIVE     D-SUB15 Pin Vert
        EPIC5-J4   6       6              PASSIVE     D-SUB15 Pin Vert

[00020] NetEBOB-J12_5
        EBOB-J12   5       5              PASSIVE     D-SUB15 Pin Vert
        EPIC5-J4   5       5              PASSIVE     D-SUB15 Pin Vert

[00023] NetEBOB-J11_15
        EBOB-J11   15      15             PASSIVE     D-SUB15 Pin Vert
        EPIC5-J5   15      15             PASSIVE     D-SUB15 Pin Vert

[00024] NetEBOB-J11_8
        EBOB-J11   8       8              PASSIVE     D-SUB15 Pin Vert
        EPIC5-J5   8       8              PASSIVE     D-SUB15 Pin Vert

[00025] NetEBOB-J11_6
        EBOB-J11   6       6              PASSIVE     D-SUB15 Pin Vert
        EPIC5-J5   6       6              PASSIVE     D-SUB15 Pin Vert

[00026] NetEBOB-J11_5
        EBOB-J11   5       5              PASSIVE     D-SUB15 Pin Vert
        EPIC5-J5   5       5              PASSIVE     D-SUB15 Pin Vert

[00027] I- J4
        EBOB-J12   7       7              PASSIVE     D-SUB15 Pin Vert
        EPIC5-J4   7       7              PASSIVE     D-SUB15 Pin Vert

[00028] I-
        EBOB-J11   7       7              PASSIVE     D-SUB15 Pin Vert
        EPIC5-J5   7       7              PASSIVE     D-SUB15 Pin Vert

[00029] I+ J4
        EBOB-J12   14      14             PASSIVE     D-SUB15 Pin Vert
        EPIC5-J4   14      14             PASSIVE     D-SUB15 Pin Vert

[00030] I+
        EBOB-J11   14      14             PASSIVE     D-SUB15 Pin Vert
        EPIC5-J5   14      14             PASSIVE     D-SUB15 Pin Vert

[00031] HI_SIDE_OUT 4
        J2-IC/BC   4       4              PASSIVE     Mini-Fit Vertical
        U4         5       OUT            OUTPUT      BTS428L2

[00032] HI_SIDE_OUT 3
        J2-IC/BC   3       3              PASSIVE     Mini-Fit Vertical
        U3         5       OUT            OUTPUT      BTS428L2

[00033] HI_SIDE_OUT 2
        J2-IC/BC   2       2              PASSIVE     Mini-Fit Vertical
        U2         5       OUT            OUTPUT      BTS428L2

[00034] HI_SIDE_OUT 1
        J2-IC/BC   1       1              PASSIVE     Mini-Fit Vertical
        U1         5       OUT            OUTPUT      BTS428L2

[00035] HI_SIDE 4
        J13-EPIC   4       4              PASSIVE     39-28-9168
        U4         2       IN             INPUT       BTS428L2

[00036] HI_SIDE 3
        J13-EPIC   3       3              PASSIVE     39-28-9168
        U3         2       IN             INPUT       BTS428L2

[00037] HI_SIDE 2
        J13-EPIC   2       2              PASSIVE     39-28-9168
        U2         2       IN             INPUT       BTS428L2

[00038] HI_SIDE 1
        J13-EPIC   1       1              PASSIVE     39-28-9168
        U1         2       IN             INPUT       BTS428L2

[00039] Fn J4
        EBOB-J12   13      13             PASSIVE     D-SUB15 Pin Vert
        EPIC5-J4   13      13             PASSIVE     D-SUB15 Pin Vert

[00040] Fn
        EBOB-J11   13      13             PASSIVE     D-SUB15 Pin Vert
        EPIC5-J5   13      13             PASSIVE     D-SUB15 Pin Vert

[00041] F COM J4
        EBOB-J12   10      10             PASSIVE     D-SUB15 Pin Vert
        EPIC5-J4   10      10             PASSIVE     D-SUB15 Pin Vert

[00042] F COM
        EBOB-J11   10      10             PASSIVE     D-SUB15 Pin Vert
        EPIC5-J5   10      10             PASSIVE     D-SUB15 Pin Vert

[00043] COM J4
        EBOB-J12   2       2              PASSIVE     D-SUB15 Pin Vert
        EPIC5-J4   2       2              PASSIVE     D-SUB15 Pin Vert

[00044] COM
        EBOB-J11   2       2              PASSIVE     D-SUB15 Pin Vert
        EPIC5-J5   2       2              PASSIVE     D-SUB15 Pin Vert

[00045] B- J4
        EBOB-J12   11      11             PASSIVE     D-SUB15 Pin Vert
        EPIC5-J4   11      11             PASSIVE     D-SUB15 Pin Vert

[00046] B-
        EBOB-J11   11      11             PASSIVE     D-SUB15 Pin Vert
        EPIC5-J5   11      11             PASSIVE     D-SUB15 Pin Vert

[00047] B+ J4
        EBOB-J12   3       3              PASSIVE     D-SUB15 Pin Vert
        EPIC5-J4   3       3              PASSIVE     D-SUB15 Pin Vert

[00048] B+
        EBOB-J11   3       3              PASSIVE     D-SUB15 Pin Vert
        EPIC5-J5   3       3              PASSIVE     D-SUB15 Pin Vert

[00049] A- J4
        EBOB-J12   9       9              PASSIVE     D-SUB15 Pin Vert
        EPIC5-J4   9       9              PASSIVE     D-SUB15 Pin Vert

[00050] A-
        EBOB-J11   9       9              PASSIVE     D-SUB15 Pin Vert
        EPIC5-J5   9       9              PASSIVE     D-SUB15 Pin Vert

[00051] A+ J4
        EBOB-J12   1       1              PASSIVE     D-SUB15 Pin Vert
        EPIC5-J4   1       1              PASSIVE     D-SUB15 Pin Vert

[00052] A+
        EBOB-J11   1       1              PASSIVE     D-SUB15 Pin Vert
        EPIC5-J5   1       1              PASSIVE     D-SUB15 Pin Vert

[00053] 5V
        EBOB-J11   4       4              PASSIVE     D-SUB15 Pin Vert
        EBOB-J12   4       4              PASSIVE     D-SUB15 Pin Vert
        EPIC5-J4   4       4              PASSIVE     D-SUB15 Pin Vert
        EPIC5-J5   4       4              PASSIVE     D-SUB15 Pin Vert

[00054] X-Stage Cleaner Engage Com
        Cleaner E  3       3              PASSIVE     Molex Mini-Fit Jr. Vert
        EPIC5-P14  1       1              PASSIVE     TE AMPMODU MTE

[00055] X-Stage Cleaner Engage
        Cleaner E  4       4              PASSIVE     Molex Mini-Fit Jr. Vert
        EPIC5-P14  2       2              PASSIVE     TE AMPMODU MTE

[00056] Waste Auger Pwr
        EPIC5-P12  7       7              PASSIVE     TE Mate & Lock Vert
        Waste Aug  2       2              PASSIVE     TE AMPMODU MTE

[00057] Waste Auger Gnd
        EPIC5-P12  2       2              PASSIVE     TE Mate & Lock Vert
        Waste Aug  1       1              PASSIVE     TE AMPMODU MTE

[00058] Tx SSR Pwr
        EPIC5-P13  7       7              PASSIVE     TE Mate & Lock Vert
        Transfuse  1       1              PASSIVE     TE AMPMODU MTE

[00059] Tx SSR Gnd
        EPIC5-P13  3       3              PASSIVE     TE Mate & Lock Vert
        Transfuse  2       2              PASSIVE     TE AMPMODU MTE

[00060] Transfuse Thermo Pos
        EPIC-P10   1       1              PASSIVE     TE AMPMODU MTE
        Transfuse  1       1              PASSIVE     TE AMPMODU MTE

[00061] Transfuse Thermo Neg
        EPIC-P10   2       2              PASSIVE     TE AMPMODU MTE
        Transfuse  2       2              PASSIVE     TE AMPMODU MTE

[00062] Takeup Torque Com
        EPIC5-J10  23      23             PASSIVE     D-SUB37 Rcpt Vert
        Takeup To  2       2              PASSIVE     Molex Mini-Fit Jr. Vert

[00063] Takeup Torque
        EPIC5-J10  5       5              PASSIVE     D-SUB37 Rcpt Vert
        R2         2       2              PASSIVE     220

[00064] Takeup Torq Pwr
        EPIC5-P11  12      12             PASSIVE     TE Mate & Lock VERT
        Takeup To  3       3              PASSIVE     Molex Mini-Fit Jr. Vert

[00065] Takeup Torq Gnd
        EPIC5-P11  4       4              PASSIVE     TE Mate & Lock VERT
        Takeup To  4       4              PASSIVE     Molex Mini-Fit Jr. Vert

[00066] Takeup Signal
        Cleaner T  4       4              PASSIVE     Molex Mini-Fit Jr. Vert
        EPIC5-P15  1       1              PASSIVE     Molex Mini-Fit Jr. Vert

[00067] Takeup Shield
        Cleaner T  1       1              PASSIVE     Molex Mini-Fit Jr. Vert
        EPIC5-P15  2       2              PASSIVE     Molex Mini-Fit Jr. Vert

[00068] Takeup Pwr
        Cleaner T  3       3              PASSIVE     Molex Mini-Fit Jr. Vert
        EPIC5-P11  13      13             PASSIVE     TE Mate & Lock VERT

[00069] Takeup Gnd
        Cleaner T  2       2              PASSIVE     Molex Mini-Fit Jr. Vert
        EPIC5-P11  5       5              PASSIVE     TE Mate & Lock VERT

[00070] Stepper Pwr
        Cleaner S  4       4              PASSIVE     Molex Mini-Fit Jr
        EPIC5-P11  10      10             PASSIVE     TE Mate & Lock VERT
        R4         2       2              PASSIVE     1.8K

[00071] Stepper Gnd
        Cleaner S  5       5              PASSIVE     Molex Mini-Fit Jr
        EPIC5-P11  2       2              PASSIVE     TE Mate & Lock VERT
        R3         1       1              PASSIVE     1.8K

[00072] Stepper Direction -
        Cleaner S  3       3              PASSIVE     Molex Mini-Fit Jr
        EPIC5-J9   2       2              PASSIVE     D-SUB15 Rcpt Vert

[00073] Stepper Direction +
        Cleaner S  2       2              PASSIVE     Molex Mini-Fit Jr
        R3         2       2              PASSIVE     1.8K

[00074] Stepper -
        Cleaner S  6       6              PASSIVE     Molex Mini-Fit Jr
        EPIC5-J9   1       1              PASSIVE     D-SUB15 Rcpt Vert

[00075] Stepper +
        Cleaner S  1       1              PASSIVE     Molex Mini-Fit Jr
        R4         1       1              PASSIVE     1.8K

[00076] Spare Pwr
        Electrome  4       4              PASSIVE     Molex Mini-Fit Jr
        EPIC5-P16  4       4              PASSIVE     Molex Mini-Fit Jr

[00077] Spare Com_2
        Electrome  6       6              PASSIVE     Molex Mini-Fit Jr
        EPIC5-P16  6       6              PASSIVE     Molex Mini-Fit Jr

[00078] Spare Com_1
        Electrome  2       2              PASSIVE     Molex Mini-Fit Jr
        EPIC5-P16  2       2              PASSIVE     Molex Mini-Fit Jr

[00079] Spare Analog
        Electrome  3       3              PASSIVE     Molex Mini-Fit Jr
        EPIC5-P16  3       3              PASSIVE     Molex Mini-Fit Jr

[00080] Platen Thermo Pos
        EPIC-P9    2       2              PASSIVE     TE AMPMODU MTE
        Platen Th  2       2              PASSIVE     TE AMPMODU MTE

[00081] Platen Thermo Neg
        EPIC-P9    1       1              PASSIVE     TE AMPMODU MTE
        Platen Th  1       1              PASSIVE     TE AMPMODU MTE

[00082] Platen Heater Pwr
        EPIC5-P12  9       9              PASSIVE     TE Mate & Lock Vert
        Platen SS  1       1              PASSIVE     TE AMPMODU MTE

[00083] Platen Heater GND
        EPIC5-P12  4       4              PASSIVE     TE Mate & Lock Vert
        Platen SS  2       2              PASSIVE     TE AMPMODU MTE

[00084] Perf Sensor Pwr
        EPIC5-P8   4       4              PASSIVE     Mini-Fit Vertical
        Image Per  1       1              PASSIVE     Molex Mini-Fit Jr

[00085] Perf Sensor Gnd
        EPIC5-P8   5       5              PASSIVE     Mini-Fit Vertical
        Image Per  2       2              PASSIVE     Molex Mini-Fit Jr

[00086] Payout Torque Com
        EPIC5-J10  22      22             PASSIVE     D-SUB37 Rcpt Vert
        Payout To  2       2              PASSIVE     Molex Mini-Fit Jr. Vert

[00087] Payout Torque
        EPIC5-J10  4       4              PASSIVE     D-SUB37 Rcpt Vert
        R1         2       2              PASSIVE     220

[00088] Payout Torq Pwr
        EPIC5-P11  11      11             PASSIVE     TE Mate & Lock VERT
        Payout To  3       3              PASSIVE     Molex Mini-Fit Jr. Vert

[00089] Payout Torq Gnd
        EPIC5-P11  3       3              PASSIVE     TE Mate & Lock VERT
        Payout To  4       4              PASSIVE     Molex Mini-Fit Jr. Vert

[00090] Payout Signal
        Cleaner P  4       4              PASSIVE     Molex Mini-Fit Jr. Vert
        EPIC5-P17  2       2              PASSIVE     Molex Mini-Fit Jr. Vert

[00091] Payout Shield
        Cleaner P  1       1              PASSIVE     Molex Mini-Fit Jr. Vert
        EPIC5-P17  3       3              PASSIVE     Molex Mini-Fit Jr. Vert

[00092] Payout Pwr
        Cleaner P  3       3              PASSIVE     Molex Mini-Fit Jr. Vert
        EPIC5-P11  9       9              PASSIVE     TE Mate & Lock VERT

[00093] Payout Gnd
        Cleaner P  2       2              PASSIVE     Molex Mini-Fit Jr. Vert
        EPIC5-P11  1       1              PASSIVE     TE Mate & Lock VERT

[00094] Part Heater Zone 4 Com
        EPIC5-J10  29      29             PASSIVE     D-SUB37 Rcpt Vert
        Heater SS  2       2              PASSIVE     39-28-9145

[00095] Part Heater Zone 4
        EPIC5-J10  11      11             PASSIVE     D-SUB37 Rcpt Vert
        Heater SS  1       1              PASSIVE     39-28-9145

[00096] Part HEater Zone 3 Com
        EPIC5-J10  28      28             PASSIVE     D-SUB37 Rcpt Vert
        Heater SS  4       4              PASSIVE     39-28-9145

[00097] Part Heater Zone 3
        EPIC5-J10  10      10             PASSIVE     D-SUB37 Rcpt Vert
        Heater SS  3       3              PASSIVE     39-28-9145

[00098] Part Heater Zone 2 Com
        EPIC5-J10  27      27             PASSIVE     D-SUB37 Rcpt Vert
        Heater SS  6       06             PASSIVE     39-28-9145

[00099] Part Heater Zone 2
        EPIC5-J10  9       9              PASSIVE     D-SUB37 Rcpt Vert
        Heater SS  5       5              PASSIVE     39-28-9145

[00100] Part Heater Zone 1 Com
        EPIC5-J10  26      26             PASSIVE     D-SUB37 Rcpt Vert
        Heater SS  8       08             PASSIVE     39-28-9145

[00101] Part Heater Zone 1
        EPIC5-J10  8       8              PASSIVE     D-SUB37 Rcpt Vert
        Heater SS  7       07             PASSIVE     39-28-9145

[00108] NetR2_1
        R2         1       1              PASSIVE     220
        Takeup To  1       1              PASSIVE     Molex Mini-Fit Jr. Vert

[00109] NetPayout Torque_1
        Payout To  1       1              PASSIVE     Molex Mini-Fit Jr. Vert
        R1         1       1              PASSIVE     220

[00135] NetEPIC5-P8_3
        EPIC5-P8   3       3              PASSIVE     Mini-Fit Vertical
        Image Per  6       6              PASSIVE     Molex Mini-Fit Jr

[00136] NetEPIC5-P8_2
        EPIC5-P8   2       2              PASSIVE     Mini-Fit Vertical
        Image Per  5       5              PASSIVE     Molex Mini-Fit Jr

[00240] NetAir Knives_3
        Air Knive  3       3              PASSIVE     Molex Mini-Fit Jr
        EPIC5-J8   7       7              PASSIVE     D-SUB37 Rcpt Vert

[00241] NetAir Knives_2
        Air Knive  2       2              PASSIVE     Molex Mini-Fit Jr
        EPIC5-J8   9       9              PASSIVE     D-SUB37 Rcpt Vert

[00242] NetAir Knives_1
        Air Knive  1       1              PASSIVE     Molex Mini-Fit Jr
        EPIC5-J8   10      10             PASSIVE     D-SUB37 Rcpt Vert

[00243] Light Tower Yellow
        EPIC5-J9   5       5              PASSIVE     D-SUB15 Rcpt Vert
        Light Tow  3       3              PASSIVE     Mini-Fit Vertical

[00244] Light Tower Red
        EPIC5-J9   4       4              PASSIVE     D-SUB15 Rcpt Vert
        Light Tow  2       2              PASSIVE     Mini-Fit Vertical

[00245] Light Tower Green
        EPIC5-J9   9       9              PASSIVE     D-SUB15 Rcpt Vert
        Light Tow  4       4              PASSIVE     Mini-Fit Vertical

[00246] Light Tower Buzzer
        EPIC5-J9   10      10             PASSIVE     D-SUB15 Rcpt Vert
        Light Tow  5       5              PASSIVE     Mini-Fit Vertical

[00247] Light Tower 24V
        EPIC5-J8   30      30             PASSIVE     D-SUB37 Rcpt Vert
        Light Tow  1       1              PASSIVE     Mini-Fit Vertical

[00248] Keyence Reg Sensor
        EPIC5-P7   1       1              PASSIVE     Mini-Fit Vertical
        Reg Senso  3       3              PASSIVE     Molex Mini-Fit Jr. Vert

[00249] Image Perf Sensor
        EPIC5-P8   1       1              PASSIVE     Mini-Fit Vertical
        Image Per  4       4              PASSIVE     Molex Mini-Fit Jr

[00250] Image Heater Zone 2 Com
        EPIC5-J10  25      25             PASSIVE     D-SUB37 Rcpt Vert
        Heater SS  10      10             PASSIVE     39-28-9145

[00251] Image Heater Zone 2
        EPIC5-J10  7       7              PASSIVE     D-SUB37 Rcpt Vert
        Heater SS  9       09             PASSIVE     39-28-9145

[00252] Image Heater Zone 1 Com
        EPIC5-J10  24      24             PASSIVE     D-SUB37 Rcpt Vert
        Heater SS  12      12             PASSIVE     39-28-9145

[00253] Image Heater Zone 1
        EPIC5-J10  6       6              PASSIVE     D-SUB37 Rcpt Vert
        Heater SS  11      11             PASSIVE     39-28-9145

[00254] EPIC5 24V
        C5         2       2              PASSIVE     100uF
        EPIC5-P18  1       1              PASSIVE     TE Mate & Lock Vert
        EPIC5-P18  1       1              PASSIVE     39-28-9208
        Heater SS  13      13             PASSIVE     39-28-9145
        J1         1       1              PASSIVE     282836-2
        Reg Senso  1       1              PASSIVE     Molex Mini-Fit Jr. Vert
        U1         6       VBB            POWER       BTS428L2
        U2         6       VBB            POWER       BTS428L2
        U3         6       VBB            POWER       BTS428L2
        U4         6       VBB            POWER       BTS428L2
        Web Condi  1       1              PASSIVE     39-28-9208

[00255] EPIC5 GND
        C5         1       1              PASSIVE     100uF
        EPIC5-P18  6       6              PASSIVE     TE Mate & Lock Vert
        EPIC5-P18  8       8              PASSIVE     TE Mate & Lock Vert
        EPIC5-P18  9       9              PASSIVE     TE Mate & Lock Vert
        EPIC5-P18  10      10             PASSIVE     TE Mate & Lock Vert
        EPIC5-P18  6       06             PASSIVE     39-28-9208
        EPIC5-P18  8       08             PASSIVE     39-28-9208
        EPIC5-P18  9       09             PASSIVE     39-28-9208
        EPIC5-P18  11      11             PASSIVE     39-28-9208
        EPIC5-P18  13      13             PASSIVE     39-28-9208
        EPIC5-P18  15      15             PASSIVE     39-28-9208
        EPIC5-P18  17      17             PASSIVE     39-28-9208
        EPIC5-P18  19      19             PASSIVE     39-28-9208
        Heater SS  14      14             PASSIVE     39-28-9145
        J1         2       2              PASSIVE     282836-2
        J2-IC/BC   5       5              PASSIVE     Mini-Fit Vertical
        J13-EPIC   9       09             PASSIVE     39-28-9168
        J13-EPIC   10      10             PASSIVE     39-28-9168
        J13-EPIC   11      11             PASSIVE     39-28-9168
        J13-EPIC   12      12             PASSIVE     39-28-9168
        J13-EPIC   13      13             PASSIVE     39-28-9168
        J13-EPIC   14      14             PASSIVE     39-28-9168
        J13-EPIC   15      15             PASSIVE     39-28-9168
        J13-EPIC   16      16             PASSIVE     39-28-9168
        Reg Senso  2       2              PASSIVE     Molex Mini-Fit Jr. Vert
        U1         1       GND            POWER       BTS428L2
        U2         1       GND            POWER       BTS428L2
        U3         1       GND            POWER       BTS428L2
        U4         1       GND            POWER       BTS428L2
        Web Condi  6       06             PASSIVE     39-28-9208
        Web Condi  8       08             PASSIVE     39-28-9208
        Web Condi  9       09             PASSIVE     39-28-9208
        Web Condi  19      19             PASSIVE     39-28-9208

[00256] ECS Alarm Signal
        ECS Alarm  2       2              PASSIVE     D-SUB9 Pin Vert
        EPIC5-J8   11      11             PASSIVE     D-SUB37 Rcpt Vert

[00257] ECS Alarm Gnd
        ECS Alarm  7       7              PASSIVE     D-SUB9 Pin Vert
        EPIC5-J8   13      13             PASSIVE     D-SUB37 Rcpt Vert

[00258] Door Open
        Access Do  1       1              PASSIVE     TE AMPMODU MTE
        EPIC5-J7   19      19             PASSIVE     D-SUB25 Rcpt Vert

[00259] Door Mag Pwr
        Door Magn  2       2              PASSIVE     TE AMPMODU MTE
        EPIC5-P13  6       6              PASSIVE     TE Mate & Lock Vert

[00260] Door Mag Gnd
        Door Magn  1       1              PASSIVE     TE AMPMODU MTE
        EPIC5-P13  2       2              PASSIVE     TE Mate & Lock Vert

[00261] Door Gnd
        Access Do  2       2              PASSIVE     TE AMPMODU MTE
        EPIC5-J7   6       6              PASSIVE     D-SUB25 Rcpt Vert

[00262] Cutoff Pwr
        Cutoff Sw  2       2              PASSIVE     TE AMPMODU MTE
        EPIC5-P13  5       5              PASSIVE     TE Mate & Lock Vert

[00263] Cutoff Gnd
        Cutoff Sw  1       1              PASSIVE     TE AMPMODU MTE
        EPIC5-P13  1       1              PASSIVE     TE Mate & Lock Vert

[00264] Cleaner Engage
        Cleaner E  1       1              PASSIVE     Molex Mini-Fit Jr. Vert
        EPIC5-P12  10      10             PASSIVE     TE Mate & Lock Vert

[00265] BELT_ROLLER_ENA
        EPIC5-P18  4       4              PASSIVE     TE Mate & Lock Vert
        EPIC5-P18  4       4              PASSIVE     39-28-9208
        Web Condi  4       4              PASSIVE     39-28-9208

[00266] BELT_PS_MONITOR4
        EPIC5-P18  18      18             PASSIVE     39-28-9208
        Web Condi  18      18             PASSIVE     39-28-9208

[00267] BELT_PS_MONITOR3
        EPIC5-P18  16      16             PASSIVE     39-28-9208
        Web Condi  16      16             PASSIVE     39-28-9208

[00268] BELT_PS_MONITOR2
        EPIC5-P18  14      14             PASSIVE     39-28-9208
        Web Condi  14      14             PASSIVE     39-28-9208

[00269] BELT_PS_MONITOR1
        EPIC5-P18  12      12             PASSIVE     39-28-9208
        Web Condi  12      12             PASSIVE     39-28-9208

[00270] BELT_PS_LVL2
        EPIC5-P18  5       5              PASSIVE     TE Mate & Lock Vert
        EPIC5-P18  5       5              PASSIVE     39-28-9208
        Web Condi  5       5              PASSIVE     39-28-9208

[00271] BELT_PS_LVL1
        EPIC5-P18  3       3              PASSIVE     TE Mate & Lock Vert
        EPIC5-P18  3       3              PASSIVE     39-28-9208
        Web Condi  3       3              PASSIVE     39-28-9208

[00272] BELT_PS_ENA
        EPIC5-P18  2       2              PASSIVE     TE Mate & Lock Vert
        EPIC5-P18  2       2              PASSIVE     39-28-9208
        Web Condi  2       2              PASSIVE     39-28-9208

[00273] BELT_PS_ARC_DETECT2
        EPIC5-P18  10      10             PASSIVE     39-28-9208
        Web Condi  10      10             PASSIVE     39-28-9208

[00274] BELT_PS_ARC_DETECT1
        EPIC5-P18  7       7              PASSIVE     TE Mate & Lock Vert
        EPIC5-P18  7       07             PASSIVE     39-28-9208
        Web Condi  7       07             PASSIVE     39-28-9208

[00275] Air Knife #2 24V

[00276] Air Knife #1 24V
        Air Knive  4       4              PASSIVE     Molex Mini-Fit Jr
        EPIC5-J8   6       6              PASSIVE     D-SUB37 Rcpt Vert

[00277] Air Knife #2 Input
        Air Knive  5       5              PASSIVE     Molex Mini-Fit Jr
        EPIC5-J10  13      13             PASSIVE     D-SUB37 Rcpt Vert

[00278] Air Knife #2 Gnd

[00279] Air Knife #1 Input
        Air Knive  6       6              PASSIVE     Molex Mini-Fit Jr
        EPIC5-J10  12      12             PASSIVE     D-SUB37 Rcpt Vert

[00280] Air Knife #1 Gnd

[00281] #2 Monitor
        Air Knive  2       2              PASSIVE     TE AMPMODU MTE
        EPIC5-J7   16      16             PASSIVE     D-SUB25 Rcpt Vert

[00282] #1 Monitor
        Air Knive  1       1              PASSIVE     TE AMPMODU MTE
        EPIC5-J7   17      17             PASSIVE     D-SUB25 Rcpt Vert

